<define-tag pagetitle>DLA-3131-1 linux</define-tag>
<define-tag report_date>2022-10-02</define-tag>
<define-tag secrefs>CVE-2021-4159 CVE-2021-33655 CVE-2021-33656 CVE-2022-1462 CVE-2022-1679 CVE-2022-2153 CVE-2022-2318 CVE-2022-2586 CVE-2022-2588 CVE-2022-2663 CVE-2022-3028 CVE-2022-26365 CVE-2022-26373 CVE-2022-33740 CVE-2022-33741 CVE-2022-33742 CVE-2022-33744 CVE-2022-36879 CVE-2022-36946 CVE-2022-39188 CVE-2022-39842 CVE-2022-40307 Bug#1018752</define-tag>
<define-tag packages>linux</define-tag>
<define-tag isvulnerable>yes</define-tag>
<define-tag fixed>yes</define-tag>
<define-tag fixed-section>no</define-tag>

#use wml::debian::security

