<define-tag pagetitle>DLA-3182-1 vim</define-tag>
<define-tag report_date>2022-11-08</define-tag>
<define-tag secrefs>CVE-2021-3927 CVE-2021-3928 CVE-2021-3974 CVE-2021-3984 CVE-2021-4019 CVE-2021-4069 CVE-2021-4192 CVE-2021-4193 CVE-2022-0213 CVE-2022-0261 CVE-2022-0319 CVE-2022-0351 CVE-2022-0359 CVE-2022-0361 CVE-2022-0368 CVE-2022-0408 CVE-2022-0413 CVE-2022-0417 CVE-2022-0443 CVE-2022-0554 CVE-2022-0572 CVE-2022-0685 CVE-2022-0714 CVE-2022-0729 CVE-2022-0943 CVE-2022-1154 CVE-2022-1616 CVE-2022-1720 CVE-2022-1851 CVE-2022-1898 CVE-2022-1968 CVE-2022-2285 CVE-2022-2304 CVE-2022-2598 CVE-2022-2946 CVE-2022-3099 CVE-2022-3134 CVE-2022-3234 CVE-2022-3324 CVE-2022-3705</define-tag>
<define-tag packages>vim</define-tag>
<define-tag isvulnerable>yes</define-tag>
<define-tag fixed>yes</define-tag>
<define-tag fixed-section>no</define-tag>

#use wml::debian::security

