<define-tag pagetitle>DLA-3223-1 giflib</define-tag>
<define-tag report_date>2022-12-05</define-tag>
<define-tag secrefs>CVE-2018-11490 CVE-2019-15133 Bug#904114</define-tag>
<define-tag packages>giflib</define-tag>
<define-tag isvulnerable>yes</define-tag>
<define-tag fixed>yes</define-tag>
<define-tag fixed-section>no</define-tag>

#use wml::debian::security

