<define-tag pagetitle>DLA-3007-1 imagemagick</define-tag>
<define-tag report_date>2022-05-14</define-tag>
<define-tag secrefs>CVE-2021-3596 CVE-2022-28463</define-tag>
<define-tag packages>imagemagick</define-tag>
<define-tag isvulnerable>yes</define-tag>
<define-tag fixed>yes</define-tag>
<define-tag fixed-section>no</define-tag>

#use wml::debian::security

