<define-tag pagetitle>DLA-2976-1 gzip</define-tag>
<define-tag report_date>2022-04-10</define-tag>
<define-tag secrefs>CVE-2022-1271 Bug#1009168</define-tag>
<define-tag packages>gzip</define-tag>
<define-tag isvulnerable>yes</define-tag>
<define-tag fixed>yes</define-tag>
<define-tag fixed-section>no</define-tag>

#use wml::debian::security

