<define-tag pagetitle>DLA-3052-1 cyrus-imapd</define-tag>
<define-tag report_date>2022-6-20</define-tag>
<define-tag secrefs>CVE-2019-18928 CVE-2021-33582 Bug#993433</define-tag>
<define-tag packages>cyrus-imapd</define-tag>
<define-tag isvulnerable>yes</define-tag>
<define-tag fixed>yes</define-tag>
<define-tag fixed-section>no</define-tag>

#use wml::debian::security

