<define-tag pagetitle>DSA-4894-1 php-pear</define-tag>
<define-tag report_date>2021-4-20</define-tag>
<define-tag secrefs>CVE-2020-36193 Bug#980428</define-tag>
<define-tag packages>php-pear</define-tag>
<define-tag isvulnerable>yes</define-tag>
<define-tag fixed>yes</define-tag>
<define-tag fixed-section>no</define-tag>

#use wml::debian::security



</dl>
