<define-tag pagetitle>DSA-4942-1 systemd</define-tag>
<define-tag report_date>2021-7-20</define-tag>
<define-tag secrefs>CVE-2021-33910</define-tag>
<define-tag packages>systemd</define-tag>
<define-tag isvulnerable>yes</define-tag>
<define-tag fixed>yes</define-tag>
<define-tag fixed-section>no</define-tag>

#use wml::debian::security



</dl>
