<define-tag pagetitle>DSA-4952-1 tomcat9</define-tag>
<define-tag report_date>2021-8-09</define-tag>
<define-tag secrefs>CVE-2021-30640 CVE-2021-33037 Bug#991046</define-tag>
<define-tag packages>tomcat9</define-tag>
<define-tag isvulnerable>yes</define-tag>
<define-tag fixed>yes</define-tag>
<define-tag fixed-section>no</define-tag>

#use wml::debian::security



</dl>
