<define-tag pagetitle>DSA-4913-1 hivex</define-tag>
<define-tag report_date>2021-5-10</define-tag>
<define-tag secrefs>CVE-2021-3504 Bug#988024</define-tag>
<define-tag packages>hivex</define-tag>
<define-tag isvulnerable>yes</define-tag>
<define-tag fixed>yes</define-tag>
<define-tag fixed-section>no</define-tag>

#use wml::debian::security



</dl>
