<define-tag pagetitle>DSA-4789-1 codemirror-js</define-tag>
<define-tag report_date>2020-11-12</define-tag>
<define-tag secrefs>CVE-2020-7760</define-tag>
<define-tag packages>codemirror-js</define-tag>
<define-tag isvulnerable>yes</define-tag>
<define-tag fixed>yes</define-tag>
<define-tag fixed-section>no</define-tag>

#use wml::debian::security



</dl>
