<define-tag pagetitle>DSA-4691-1 pdns-recursor</define-tag>
<define-tag report_date>2020-5-21</define-tag>
<define-tag secrefs>CVE-2020-10995 CVE-2020-12244</define-tag>
<define-tag packages>pdns-recursor</define-tag>
<define-tag isvulnerable>yes</define-tag>
<define-tag fixed>yes</define-tag>
<define-tag fixed-section>no</define-tag>

#use wml::debian::security



</dl>
