<define-tag pagetitle>DLA-2592-1 golang-1.8</define-tag>
<define-tag report_date>2021-03-15</define-tag>
<define-tag secrefs>CVE-2017-15041 CVE-2018-16873 CVE-2018-16874 CVE-2019-9741 CVE-2019-16276 CVE-2019-17596 CVE-2021-3114 Bug#924630 Bug#941173 Bug#942628 Bug#942629</define-tag>
<define-tag packages>golang-1.8</define-tag>
<define-tag isvulnerable>yes</define-tag>
<define-tag fixed>yes</define-tag>
<define-tag fixed-section>no</define-tag>

#use wml::debian::security

