<define-tag pagetitle>DLA-2835-1 rsyslog</define-tag>
<define-tag report_date>2021-11-30</define-tag>
<define-tag secrefs>CVE-2019-17041 CVE-2019-17042 Bug#942065 Bug#942067</define-tag>
<define-tag packages>rsyslog</define-tag>
<define-tag isvulnerable>yes</define-tag>
<define-tag fixed>yes</define-tag>
<define-tag fixed-section>no</define-tag>

#use wml::debian::security

