<define-tag pagetitle>DLA-2684-1 lasso</define-tag>
<define-tag report_date>2021-6-10</define-tag>
<define-tag secrefs>CVE-2021-28091</define-tag>
<define-tag packages>lasso</define-tag>
<define-tag isvulnerable>yes</define-tag>
<define-tag fixed>yes</define-tag>
<define-tag fixed-section>no</define-tag>

#use wml::debian::security

