<define-tag pagetitle>DLA-2832-1 opensc</define-tag>
<define-tag report_date>2021-11-29</define-tag>
<define-tag secrefs>CVE-2019-15945 CVE-2019-15946 CVE-2019-19479 CVE-2020-26570 CVE-2020-26571 CVE-2020-26572 Bug#939668 Bug#939669 Bug#947383 Bug#972035 Bug#972036 Bug#972037</define-tag>
<define-tag packages>opensc</define-tag>
<define-tag isvulnerable>yes</define-tag>
<define-tag fixed>yes</define-tag>
<define-tag fixed-section>no</define-tag>

#use wml::debian::security

