<define-tag pagetitle>DLA-2804-1 libsdl1.2</define-tag>
<define-tag report_date>2021-10-31</define-tag>
<define-tag secrefs>CVE-2019-7572 CVE-2019-7573 CVE-2019-7574 CVE-2019-7575 CVE-2019-7576 CVE-2019-7577 CVE-2019-7578 CVE-2019-7635 CVE-2019-7636 CVE-2019-7637 CVE-2019-7638 CVE-2019-13616 Bug#924609</define-tag>
<define-tag packages>libsdl1.2</define-tag>
<define-tag isvulnerable>yes</define-tag>
<define-tag fixed>yes</define-tag>
<define-tag fixed-section>no</define-tag>

#use wml::debian::security

