<define-tag pagetitle>DSA-5483-1 chromium</define-tag>
<define-tag report_date>2023-8-25</define-tag>
<define-tag secrefs>CVE-2023-4427 CVE-2023-4428 CVE-2023-4429 CVE-2023-4430 CVE-2023-4431</define-tag>
<define-tag packages>chromium</define-tag>
<define-tag isvulnerable>yes</define-tag>
<define-tag fixed>yes</define-tag>
<define-tag fixed-section>no</define-tag>

#use wml::debian::security



</dl>
