<define-tag pagetitle>DSA-5450-1 firefox-esr</define-tag>
<define-tag report_date>2023-7-07</define-tag>
<define-tag secrefs>CVE-2023-37201 CVE-2023-37202 CVE-2023-37207 CVE-2023-37208 CVE-2023-37211</define-tag>
<define-tag packages>firefox-esr</define-tag>
<define-tag isvulnerable>yes</define-tag>
<define-tag fixed>yes</define-tag>
<define-tag fixed-section>no</define-tag>

#use wml::debian::security



</dl>
