<define-tag pagetitle>DSA-5497-1 libwebp</define-tag>
<define-tag report_date>2023-9-13</define-tag>
<define-tag secrefs>CVE-2023-4863</define-tag>
<define-tag packages>libwebp</define-tag>
<define-tag isvulnerable>yes</define-tag>
<define-tag fixed>yes</define-tag>
<define-tag fixed-section>no</define-tag>

#use wml::debian::security



</dl>
