<define-tag pagetitle>DSA-5347-1 imagemagick</define-tag>
<define-tag report_date>2023-2-13</define-tag>
<define-tag secrefs>CVE-2022-44267 CVE-2022-44268</define-tag>
<define-tag packages>imagemagick</define-tag>
<define-tag isvulnerable>yes</define-tag>
<define-tag fixed>yes</define-tag>
<define-tag fixed-section>no</define-tag>

#use wml::debian::security



</dl>
