<define-tag pagetitle>DSA-5389-1 rails</define-tag>
<define-tag report_date>2023-4-14</define-tag>
<define-tag secrefs>CVE-2023-23913 CVE-2023-28120 Bug#1033262 Bug#1033263</define-tag>
<define-tag packages>rails</define-tag>
<define-tag isvulnerable>yes</define-tag>
<define-tag fixed>yes</define-tag>
<define-tag fixed-section>no</define-tag>

#use wml::debian::security



</dl>
