<define-tag pagetitle>DSA-5466-1 ntpsec</define-tag>
<define-tag report_date>2023-8-04</define-tag>
<define-tag secrefs>CVE-2023-4012 Bug#1038422</define-tag>
<define-tag packages>ntpsec</define-tag>
<define-tag isvulnerable>yes</define-tag>
<define-tag fixed>yes</define-tag>
<define-tag fixed-section>no</define-tag>

#use wml::debian::security



</dl>
