<define-tag pagetitle>DSA-5468-1 webkit2gtk</define-tag>
<define-tag report_date>2023-8-05</define-tag>
<define-tag secrefs>CVE-2023-38133 CVE-2023-38572 CVE-2023-38592 CVE-2023-38594 CVE-2023-38595 CVE-2023-38597 CVE-2023-38599 CVE-2023-38600 CVE-2023-38611</define-tag>
<define-tag packages>webkit2gtk</define-tag>
<define-tag isvulnerable>yes</define-tag>
<define-tag fixed>yes</define-tag>
<define-tag fixed-section>no</define-tag>

#use wml::debian::security



</dl>
