<define-tag pagetitle>DSA-5460-1 curl</define-tag>
<define-tag report_date>2023-7-26</define-tag>
<define-tag secrefs>CVE-2023-32001</define-tag>
<define-tag packages>curl</define-tag>
<define-tag isvulnerable>yes</define-tag>
<define-tag fixed>yes</define-tag>
<define-tag fixed-section>no</define-tag>

#use wml::debian::security



</dl>
