<define-tag pagetitle>DSA-5409-1 libssh</define-tag>
<define-tag report_date>2023-5-23</define-tag>
<define-tag secrefs>CVE-2023-1667 CVE-2023-2283 Bug#1035832</define-tag>
<define-tag packages>libssh</define-tag>
<define-tag isvulnerable>yes</define-tag>
<define-tag fixed>yes</define-tag>
<define-tag fixed-section>no</define-tag>

#use wml::debian::security



</dl>
