<define-tag pagetitle>DLA-1047-1 supervisor</define-tag>
<define-tag report_date>2017-7-31</define-tag>
<define-tag secrefs>CVE-2017-11610 Bug#870187</define-tag>
<define-tag packages>supervisor</define-tag>
<define-tag isvulnerable>yes</define-tag>
<define-tag fixed>yes</define-tag>
<define-tag fixed-section>no</define-tag>

#use wml::debian::security

