<define-tag pagetitle>DLA-841-2 apache2</define-tag>
<define-tag report_date>2017-7-29</define-tag>
<define-tag secrefs>CVE-2015-0253 CVE-2016-8743 Bug#858373</define-tag>
<define-tag packages>apache2</define-tag>
<define-tag isvulnerable>yes</define-tag>
<define-tag fixed>yes</define-tag>
<define-tag fixed-section>no</define-tag>

#use wml::debian::security

