<define-tag pagetitle>DLA-3388-1 keepalived</define-tag>
<define-tag report_date>2023-4-10</define-tag>
<define-tag secrefs>CVE-2021-44225</define-tag>
<define-tag packages>keepalived</define-tag>
<define-tag isvulnerable>yes</define-tag>
<define-tag fixed>yes</define-tag>
<define-tag fixed-section>no</define-tag>

#use wml::debian::security

