<define-tag pagetitle>DLA-3386-1 grunt</define-tag>
<define-tag report_date>2023-04-06</define-tag>
<define-tag secrefs>CVE-2022-0436</define-tag>
<define-tag packages>grunt</define-tag>
<define-tag isvulnerable>yes</define-tag>
<define-tag fixed>yes</define-tag>
<define-tag fixed-section>no</define-tag>

#use wml::debian::security
