<define-tag pagetitle>DLA-3287-1 lemonldap-ng</define-tag>
<define-tag report_date>2023-01-28</define-tag>
<define-tag secrefs>CVE-2020-16093 CVE-2022-37186</define-tag>
<define-tag packages>lemonldap-ng</define-tag>
<define-tag isvulnerable>yes</define-tag>
<define-tag fixed>yes</define-tag>
<define-tag fixed-section>no</define-tag>

#use wml::debian::security

