<define-tag pagetitle>DLA-3455-1 golang-go.crypto</define-tag>
<define-tag report_date>2023-6-16</define-tag>
<define-tag secrefs>CVE-2019-11840 CVE-2019-11841 CVE-2020-9283 Bug#952462</define-tag>
<define-tag packages>golang-go.crypto</define-tag>
<define-tag isvulnerable>yes</define-tag>
<define-tag fixed>yes</define-tag>
<define-tag fixed-section>no</define-tag>

#use wml::debian::security

