<define-tag pagetitle>DLA-3326-1 isc-dhcp</define-tag>
<define-tag report_date>2023-2-20</define-tag>
<define-tag secrefs>Bug#1022969</define-tag>
<define-tag packages>isc-dhcp</define-tag>
<define-tag isvulnerable>yes</define-tag>
<define-tag fixed>yes</define-tag>
<define-tag fixed-section>no</define-tag>

#use wml::debian::security

