<define-tag pagetitle>DLA-3544-1 clamav</define-tag>
<define-tag report_date>2023-08-28</define-tag>
<define-tag secrefs>CVE-2023-20197 Bug#1050057</define-tag>
<define-tag packages>clamav</define-tag>
<define-tag isvulnerable>yes</define-tag>
<define-tag fixed>yes</define-tag>
<define-tag fixed-section>no</define-tag>

#use wml::debian::security

