<define-tag pagetitle>DLA-3514-1 bouncycastle</define-tag>
<define-tag report_date>2023-08-02</define-tag>
<define-tag secrefs>CVE-2023-33201</define-tag>
<define-tag packages>bouncycastle</define-tag>
<define-tag isvulnerable>yes</define-tag>
<define-tag fixed>yes</define-tag>
<define-tag fixed-section>no</define-tag>

#use wml::debian::security
