<define-tag pagetitle>DLA-3551-1 otrs2</define-tag>
<define-tag report_date>2023-08-31</define-tag>
<define-tag secrefs>CVE-2019-11358 CVE-2019-12248 CVE-2019-12497 CVE-2019-12746 CVE-2019-13458 CVE-2019-16375 CVE-2019-18179 CVE-2019-18180 CVE-2020-1765 CVE-2020-1766 CVE-2020-1767 CVE-2020-1769 CVE-2020-1770 CVE-2020-1771 CVE-2020-1772 CVE-2020-1773 CVE-2020-1774 CVE-2020-1776 CVE-2020-11022 CVE-2020-11023 CVE-2021-21252 CVE-2021-21439 CVE-2021-21440 CVE-2021-21441 CVE-2021-21443 CVE-2021-36091 CVE-2021-36100 CVE-2021-41182 CVE-2021-41183 CVE-2021-41184 CVE-2022-4427 CVE-2023-38060 Bug#945251 Bug#959448 Bug#980891 Bug#989992 Bug#991593</define-tag>
<define-tag packages>otrs2</define-tag>
<define-tag isvulnerable>yes</define-tag>
<define-tag fixed>yes</define-tag>
<define-tag fixed-section>no</define-tag>

#use wml::debian::security

