<define-tag pagetitle>DLA-3480-1 ruby-redcloth</define-tag>
<define-tag report_date>2023-07-17</define-tag>
<define-tag secrefs>CVE-2023-31606 Bug#1040488</define-tag>
<define-tag packages>ruby-redcloth</define-tag>
<define-tag isvulnerable>yes</define-tag>
<define-tag fixed>yes</define-tag>
<define-tag fixed-section>no</define-tag>

#use wml::debian::security

