<define-tag pagetitle>DLA-3315-2 sox</define-tag>
<define-tag report_date>2023-03-20</define-tag>
<define-tag secrefs>Bug#1032082</define-tag>
<define-tag packages>sox</define-tag>
<define-tag isvulnerable>no</define-tag>
<define-tag fixed>yes</define-tag>
<define-tag fixed-section>no</define-tag>

#use wml::debian::security

