<define-tag pagetitle>DLA-3483-1 nsis</define-tag>
<define-tag report_date>2023-07-07</define-tag>
<define-tag secrefs>CVE-2023-37378</define-tag>
<define-tag packages>nsis</define-tag>
<define-tag isvulnerable>yes</define-tag>
<define-tag fixed>yes</define-tag>
<define-tag fixed-section>no</define-tag>

#use wml::debian::security

