<define-tag pagetitle>DLA-3414-1 avahi</define-tag>
<define-tag report_date>2023-05-02</define-tag>
<define-tag secrefs>CVE-2023-1981</define-tag>
<define-tag packages>avahi</define-tag>
<define-tag isvulnerable>yes</define-tag>
<define-tag fixed>yes</define-tag>
<define-tag fixed-section>no</define-tag>

#use wml::debian::security
