<define-tag pagetitle>DLA-3303-1 ruby-git</define-tag>
<define-tag report_date>2023-01-31</define-tag>
<define-tag secrefs>CVE-2022-25648 CVE-2022-46648 CVE-2022-47318 Bug#1009926</define-tag>
<define-tag packages>ruby-git</define-tag>
<define-tag isvulnerable>yes</define-tag>
<define-tag fixed>yes</define-tag>
<define-tag fixed-section>no</define-tag>

#use wml::debian::security

