<define-tag pagetitle>DLA-3508-1 linux</define-tag>
<define-tag report_date>2023-7-27</define-tag>
<define-tag secrefs>CVE-2023-1380 CVE-2023-2002 CVE-2023-2007 CVE-2023-2269 CVE-2023-3090 CVE-2023-3111 CVE-2023-3141 CVE-2023-3268 CVE-2023-3338 CVE-2023-20593 CVE-2023-31084 CVE-2023-32233 CVE-2023-34256 CVE-2023-35788 CVE-2023-35823 CVE-2023-35824 CVE-2023-35828</define-tag>
<define-tag packages>linux</define-tag>
<define-tag isvulnerable>yes</define-tag>
<define-tag fixed>yes</define-tag>
<define-tag fixed-section>no</define-tag>

#use wml::debian::security

