<define-tag pagetitle>DLA-3464-1 xmltooling</define-tag>
<define-tag report_date>2023-06-21</define-tag>
<define-tag secrefs>Bug#1037948 not yet available</define-tag>
<define-tag packages>xmltooling</define-tag>
<define-tag isvulnerable>yes</define-tag>
<define-tag fixed>yes</define-tag>
<define-tag fixed-section>no</define-tag>

#use wml::debian::security

