<define-tag pagetitle>DLA-2083-1 hiredis</define-tag>
<define-tag report_date>2020-01-29</define-tag>
<define-tag secrefs>CVE-2020-7105</define-tag>
<define-tag packages>hiredis</define-tag>
<define-tag isvulnerable>yes</define-tag>
<define-tag fixed>yes</define-tag>
<define-tag fixed-section>no</define-tag>

#use wml::debian::security
