<define-tag pagetitle>DLA-2197-1 miniupnpc</define-tag>
<define-tag report_date>2020-4-30</define-tag>
<define-tag secrefs>CVE-2017-8798</define-tag>
<define-tag packages>miniupnpc</define-tag>
<define-tag isvulnerable>yes</define-tag>
<define-tag fixed>yes</define-tag>
<define-tag fixed-section>no</define-tag>

#use wml::debian::security

