<define-tag pagetitle>DLA-2138-1 wpa</define-tag>
<define-tag report_date>2020-3-11</define-tag>
<define-tag secrefs>CVE-2019-10064</define-tag>
<define-tag packages>wpa</define-tag>
<define-tag isvulnerable>yes</define-tag>
<define-tag fixed>yes</define-tag>
<define-tag fixed-section>no</define-tag>

#use wml::debian::security

