<define-tag pagetitle>DLA-2381-1 lua5.3</define-tag>
<define-tag report_date>2020-09-26</define-tag>
<define-tag secrefs>CVE-2020-24370</define-tag>
<define-tag packages>lua5.3</define-tag>
<define-tag isvulnerable>yes</define-tag>
<define-tag fixed>yes</define-tag>
<define-tag fixed-section>no</define-tag>

#use wml::debian::security

