<define-tag pagetitle>DLA-1532-1 dnsmasq</define-tag>
<define-tag report_date>2018-10-4</define-tag>
<define-tag secrefs>Bug#907887</define-tag>
<define-tag packages>dnsmasq</define-tag>
<define-tag isvulnerable>yes</define-tag>
<define-tag fixed>yes</define-tag>
<define-tag fixed-section>no</define-tag>

#use wml::debian::security

