<define-tag pagetitle>DLA-1487-1 libtirpc</define-tag>
<define-tag report_date>2018-8-31</define-tag>
<define-tag secrefs>CVE-2018-14622</define-tag>
<define-tag packages>libtirpc</define-tag>
<define-tag isvulnerable>yes</define-tag>
<define-tag fixed>yes</define-tag>
<define-tag fixed-section>no</define-tag>

#use wml::debian::security

