<define-tag pagetitle>DSA-4433-1 ruby2.3</define-tag>
<define-tag report_date>2019-4-16</define-tag>
<define-tag secrefs>CVE-2019-8320 CVE-2019-8321 CVE-2019-8322 CVE-2019-8323 CVE-2019-8324 CVE-2019-8325</define-tag>
<define-tag packages>ruby2.3</define-tag>
<define-tag isvulnerable>yes</define-tag>
<define-tag fixed>yes</define-tag>
<define-tag fixed-section>no</define-tag>

#use wml::debian::security



</dl>
