<define-tag pagetitle>DSA-5304-1 xorg-server</define-tag>
<define-tag report_date>2022-12-20</define-tag>
<define-tag secrefs>CVE-2022-4283 CVE-2022-46340 CVE-2022-46341 CVE-2022-46342 CVE-2022-46343 CVE-2022-46344 Bug#1026071</define-tag>
<define-tag packages>xorg-server</define-tag>
<define-tag isvulnerable>yes</define-tag>
<define-tag fixed>yes</define-tag>
<define-tag fixed-section>no</define-tag>

#use wml::debian::security



</dl>
