<define-tag pagetitle>DSA-5162-1 containerd</define-tag>
<define-tag report_date>2022-6-12</define-tag>
<define-tag secrefs>CVE-2022-24769 CVE-2022-31030</define-tag>
<define-tag packages>containerd</define-tag>
<define-tag isvulnerable>yes</define-tag>
<define-tag fixed>yes</define-tag>
<define-tag fixed-section>no</define-tag>

#use wml::debian::security



</dl>
