<define-tag pagetitle>DSA-5203-1 gnutls28</define-tag>
<define-tag report_date>2022-8-08</define-tag>
<define-tag secrefs>CVE-2022-2509</define-tag>
<define-tag packages>gnutls28</define-tag>
<define-tag isvulnerable>yes</define-tag>
<define-tag fixed>yes</define-tag>
<define-tag fixed-section>no</define-tag>

#use wml::debian::security



</dl>
