<define-tag pagetitle>DSA-5306-1 gerbv</define-tag>
<define-tag report_date>2022-12-27</define-tag>
<define-tag secrefs>CVE-2021-40393 CVE-2021-40394 CVE-2021-40401 CVE-2021-40403</define-tag>
<define-tag packages>gerbv</define-tag>
<define-tag isvulnerable>yes</define-tag>
<define-tag fixed>yes</define-tag>
<define-tag fixed-section>no</define-tag>

#use wml::debian::security



</dl>
