<define-tag pagetitle>DSA-5175-1 thunderbird</define-tag>
<define-tag report_date>2022-7-04</define-tag>
<define-tag secrefs>CVE-2022-2200 CVE-2022-2226 CVE-2022-31744 CVE-2022-34468 CVE-2022-34470 CVE-2022-34472 CVE-2022-34479 CVE-2022-34481 CVE-2022-34484</define-tag>
<define-tag packages>thunderbird</define-tag>
<define-tag isvulnerable>yes</define-tag>
<define-tag fixed>yes</define-tag>
<define-tag fixed-section>no</define-tag>

#use wml::debian::security



</dl>
