<define-tag pagetitle>DLA-1751-1 suricata</define-tag>
<define-tag report_date>2019-04-08</define-tag>
<define-tag secrefs>CVE-2018-10242 CVE-2018-10243</define-tag>
<define-tag packages>suricata</define-tag>
<define-tag isvulnerable>yes</define-tag>
<define-tag fixed>yes</define-tag>
<define-tag fixed-section>no</define-tag>

#use wml::debian::security

