    1	93sam 	Steve McIntyre
    2	aba 	Andreas Barth
    3	abe 	Axel Beckert
    4	abhijith 	Abhijith PA
    5	abi 	Michael Ablassmeier
    6	aboll 	Andreas Boll
    7	absurd 	Stephan Suerken
    8	achernya 	Alexander Chernyakhovsky
    9	adamm 	Adam Majer
   10	adconrad 	Adam Conrad
   11	adejong 	Arthur de Jong
   12	adn 	Mohammed Adnène Trojette
   13	adrianorg 	Adriano Rafael Gomes
   14	adsb 	Adam D. Barratt
   15	aeb 	Andreas E. Bombe
   16	aerostitch 	Joseph Herlant
   17	afif 	Afif Elghraoui
   18	agi 	Alberto Gonzalez Iniesta
   19	agmartin 	Agustín Martín Domingo
   20	agx 	Guido Guenther
   21	ah 	Andreas Henriksson
   22	ahs3 	Al Stone
   23	aigarius 	Aigars Mahinovs
   24	ajmitch 	Andrew Mitchell
   25	ajqlee 	Andrew Lee
   26	ajt 	Anthony Towns
   27	akira 	Akira Yamada
   28	akumar 	Kumar Appaiah
   29	alejandro 	Alejandro Garrido Mota
   30	alessio 	Alessio Treglia
   31	alex 	Alexander List
   32	alexm 	Alex Muntada
   33	alexp 	Alex Pennace
   34	alfs 	Stefan Alfredsson
   35	alteholz 	Thorsten Alteholz
   36	amacater 	Andrew Martin Adrian Cater
   37	amaya 	Amaya Rodrigo Sastre
   38	ametzler 	Andreas Metzler
   39	ana 	Ana Beatriz Guerrero López
   40	anarcat 	Antoine Beaupré
   41	anbe 	Andreas Beckmann
   42	andi 	Andreas B. Mundt
   43	andree 	Andree Leidenfrost
   44	andrelop 	Andre Luis Lopes
   45	andrewsh 	Andrew Shadura
   46	anfra 	Andreas Franzen
   47	angdraug 	Dmitry Borodaenko
   48	angel 	Angel Abad
   49	anibal 	Anibal Monsalve Salazar
   50	anoe 	Alexandre Delanoë
   51	ansgar 	Ansgar Burchardt
   52	antonio 	Antonio Radici
   53	apo 	Markus Koschany
   54	apoikos 	Apollon Oikonomopoulos
   55	apollock 	Andrew Pollock
   56	apw 	Amos Waterland
   57	aquette 	Arnaud Quette
   58	ar 	Yasuhiro Araki
   59	ardo 	Ardo van Rangelrooij
   60	ari 	Ari Pollak
   61	arnau 	Arnaud Fontaine
   62	arno 	Arno Töll
   63	aroldan 	Andrés Roldán
   64	aron 	Aron Xu
   65	arthurliu 	Obey Arthur Liu
   66	arturo 	Arturo Borrero González
   67	asac 	Alexander Sack
   68	asb 	Andrew Starr-Bochicchio
   69	ash 	Albert Huang
   70	asias 	Asias He
   71	aurel32 	Aurelien Jarno
   72	aviau 	Alexandre Viau
   73	avtobiff 	Per Andersson
   74	awm 	Andrew McMillan
   75	awoodland 	Alan Woodland
   76	az 	Alexander Zangerl
   77	azekulic 	Alen Zekulic
   78	bab 	Ben Burton
   79	bahner 	Lars Bahner
   80	balasankarc 	Balasankar Chelamattathu
   81	ballombe 	Bill Allombert
   82	bam 	Brian May
   83	bame 	Paul D. Bame
   84	baozich 	Chen Baozi
   85	bap 	Barak A. Pearlmutter
   86	barbier 	Denis Barbier
   87	barry 	Barry Warsaw
   88	bartm 	Bart Martens
   89	bas 	Bas Zoetekouw
   90	bayle 	Christian Bayle
   91	bbaren 	Benjamin Barenblat
   92	bblough 	William Blough
   93	bcwhite 	Brian White
   94	bdale 	Bdale Garbee
   95	bdefreese 	Barry deFreese
   96	bdrung 	Benjamin Drung
   97	ben 	Benjamin Mesing
   98	bencer 	Jorge Salamero Sanz
   99	bengen 	Hilko Bengen
  100	benh 	Ben Hutchings
  101	bernat 	Vincent Bernat
  102	berni 	Bernhard Schmidt
  103	berto 	Alberto Garcia
  104	bertol 	Nicolas Bertolissio
  105	beuc 	Sylvain Beucler
  106	bg66 	Akira Ohashi
  107	bgoglin 	Brice Goglin
  108	bgupta 	Brian Gupta
  109	biebl 	Michael Biebl
  110	bigeasy 	Sebastian Andrzej Siewior
  111	bignose 	Ben Finney
  112	bigon 	Laurent Bigonville
  113	blackxored 	Adrian Perez
  114	blade 	Eduard Bloch
  115	blarson 	Robert Alan Larson
  116	bluca 	Luca Boccassi
  117	bmarc 	Bertrand Marc
  118	bod 	Brendan O'Dea
  119	bootc 	Chris Boot
  120	bossekr 	Raphael Bossek
  121	bottoms 	Maitland Bottoms
  122	boutil 	Cédric Boutillier
  123	bpellin 	Brian Pellin
  124	brad 	Bradley Bosch
  125	branden 	Branden Robinson
  126	bremner 	David Bremner
  127	brianr 	Brian Ristuccia
  128	brlink 	Bernhard R. Link
  129	broonie 	Mark Brown
  130	brother 	Martin Bagge
  131	bs 	Bernd Schumacher
  132	bubulle 	Christian Perrier
  133	bunk 	Adrian Bunk
  134	bureado 	Jose Parrella
  135	byang 	Boyuan Yang
  136	bzed 	Bernd Zeimetz
  137	calculus 	Jerome Georges Benoit
  138	calhariz 	Jose M. Calhariz
  139	camm 	Camm Maguire
  140	camrdale 	Cameron Dale
  141	capriott 	Andrea Capriotti
  142	carnil 	Salvatore Bonaccorso
  143	caroll 	Ana Carolina Comandulli
  144	carsten 	Carsten Hey
  145	cas 	Craig Sanders
  146	cascardo 	Thadeu Cascardo
  147	cate 	Giacomo Catenazzi
  148	cavedon 	Ludovico Cavedon
  149	cavok 	Domenico Andreoli
  150	cbiedl 	Christoph Biedl
  151	ccheney 	Christopher L. Cheney
  152	cech 	Petr Cech
  153	cedric 	Cédric Delfosse
  154	certik 	Ondřej Čertík
  155	cespedes 	Juan Cespedes
  156	chaica 	Carl Chenet
  157	chrish 	Christian Hudon
  158	chrism 	Christoph Martin
  159	christine 	Christine Christine Spang
  160	christoph 	Christoph Egger
  161	cjwatson 	Colin Watson
  162	ckk 	Christian Kastner
  163	cklin 	Chuan-kai Lin
  164	claviola 	Carlos Laviola
  165	cleto 	Cleto Martín Angelina
  166	clint 	Clint Adams
  167	clown 	Alexei Nikolov
  168	cmb 	Chris Boyle
  169	cmc 	Claire Connelly
  170	cnanakos 	Chrysostomos Nanakos
  171	codehelp 	Neil Williams
  172	colint 	Colin Tuckley
  173	cord 	Cord Beermann
  174	corsac 	Yves-Alexis Perez
  175	costela 	Leo Costela
  176	coucouf 	Aurélien Couderc
  177	cowboy 	Richard A. Nelson
  178	cristian 	Cristian Greco
  179	csmall 	Craig Small
  180	ctaylor 	Christopher Taylor
  181	ctrochalakis 	Christos Trochalakis
  182	cts 	Christian T. Steigies
  183	cupis 	Paul Cupis
  184	curan 	Kai Wasserbäch
  185	cworth 	Carl Worth
  186	cwryu 	Changwoo Ryu
  187	cyb 	Cyril Bouthors
  188	czchen 	ChangZhuo Chen
  189	daf 	Dafydd Harries
  190	dai 	Daisuke Higuchi
  191	daigo 	Daigo Moriwaki
  192	daissi 	Dylan Aïssi
  193	dajobe 	Dave Beckett
  194	danai 	Danai Sae-Han
  195	dancer 	Junichi Uekawa
  196	danchev 	George Danchev
  197	daniel 	Daniel Baumann
  198	dannf 	Dann Frazier
  199	dapal 	David Paleino
  200	darek 	Dariusz Dwornikowski
  201	dato 	Dato Simó
  202	dave 	Dave Holland
  203	davidc 	David L. Coe
  204	dbugger 	Dennis L. Clark
  205	debacle 	Wolfgang Borgert
  206	debalance 	Philipp Huebner
  207	decklin 	Decklin Foster
  208	deek 	Jeff Teunissen
  209	deepak 	Deepak Tripathi
  210	delaunay 	Eric Delaunay
  211	dererk 	Ulises Vitulli
  212	devin 	Devin Carraway
  213	dexter 	Piotr Roszatycki
  214	diane 	Diane Trout
  215	dilinger 	Andres Salomon
  216	dima 	Dima Barsky
  217	diocles 	Tim Retout
  218	directhex 	Jo Shields
  219	dirson 	Yann Dirson
  220	djpig 	Frank Lichtenheld
  221	dkg 	Daniel Kahn Gillmor
  222	dkogan 	Dima Kogan
  223	dktrkranz 	Luca Falavigna
  224	dlange 	Daniel Lange
  225	dld 	Drake Diedrich
  226	dlehn 	David I. Lehn
  227	dleidert 	Daniel Leidert
  228	dmartin 	Dale Martin
  229	dmn 	Damyan Ivanov
  230	dnusinow 	David Nusinow
  231	dod 	Dominique Dumont
  232	dogsleg 	Lev Lamberov
  233	doko 	Matthias Klose
  234	dom 	Dominic Hargreaves
  235	domibel 	Dominique Belhachemi
  236	don 	Don Armstrong
  237	donald 	Donald Norwood
  238	donkult 	David Kalnischkies
  239	dottedmag 	Mikhail Gusarov
  240	dparsons 	Drew Parsons
  241	dreamind 	Stefan Pfetzing
  242	dsilvers 	Daniel Silverstone
  243	duck 	Marc Dequènes
  244	dwatson 	David Watson
  245	ean 	Ean Schuessler
  246	ebourg 	Emmanuel Bourg
  247	ed 	Ed Boraas
  248	edd 	Dirk Eddelbuettel
  249	edelhard 	Edelhard Becker
  250	edmonds 	Robert Edmonds
  251	edward 	Edward John Betts
  252	eevans 	Eric Evans
  253	ehashman 	Elana Hashman
  254	eichin 	Mark Eichin
  255	eighthave 	Hans-Christoph Steiner
  256	eike 	Eike Sauer
  257	elbrus 	Paul Mathijs Gevers
  258	elf 	Marc Singer
  259	ellert 	Mattias Ellert
  260	eloy 	Krzysztof Krzyzaniak
  261	ema 	Emanuele Rocca
  262	emfox 	Emfox Zhou
  263	enrico 	Enrico Zini
  264	eppesuig 	Giuseppe Sacco
  265	epsilon 	Daniel Echeverry
  266	eriberto 	Joao Eriberto Mota Filho
  267	eric 	Eric Dorland
  268	erich 	Erich Schubert
  269	erik 	Erik Wenzel
  270	eriks 	Erik Schanze
  271	erinn 	Erinn Clark
  272	eriol 	Daniele Tricoli
  273	etbe 	Russell Coker
  274	etobi 	Tobias Grimm
  275	eugen 	Eugeniy Meshcheryakov
  276	eugene 	Eugene Zhukov
  277	evgeni 	Evgeni Golov
  278	evo 	Davide Puricelli
  279	fabbe 	Fabian Fagerholm
  280	fabian 	Fabian Greffrath
  281	fabo 	Fathi Boudra
  282	falk 	Falk Hueffner
  283	faw 	Felipe Augusto van de Wiel
  284	federico 	Federico Ceratto
  285	fenio 	Bartosz Fenski
  286	fgeyer 	Felix Geyer
  287	fh 	Florian Hinzmann
  288	filippo 	Filippo Giunchedi
  289	fladi 	Michael Fladischer
  290	flo 	Florian Lohoff
  291	florian 	Florian Ernst
  292	fog 	Federico Di Gregorio
  293	foka 	Anthony Fok
  294	formorer 	Alexander Wirt
  295	fourdollars 	Shih-Yuan Lee
  296	fpeters 	Frederic Peters
  297	franam 	Francesco Namuri
  298	francisco 	Francisco Manuel García Claramonte
  299	francois 	Francois Marier
  300	frank 	Frank Küster
  301	frankie 	Francesco Lovergine
  302	frediz 	Frédéric Bonnard
  303	freee 	Free Ekanayaka
  304	fs 	Frederik Schüler
  305	fsateler 	Felipe Sateler
  306	fsfs 	Florian Schlichting
  307	fuddl 	Bruno Kleinert
  308	fuji 	Peter Kelemen
  309	fw 	Florian Weimer
  310	garabik 	Radovan Garabik
  311	garden 	Ludovico Gardenghi
  312	gareuselesinge 	Enrico Tassi
  313	gaudenz 	Gaudenz Steinlin
  314	gcs 	László Böszörményi
  315	geissert 	Raphael Geissert
  316	genannt 	Jonas Genannt
  317	georgesk 	Georges Khaznadar
  318	gewo 	Gert Wollny
  319	gfa 	Gustavo Panizzo
  320	ghe 	Juan Gregorio Hernando Rivero
  321	ghedo 	Alessandro Ghedini
  322	ghostbar 	Jose Luis Rivas Contreras
  323	ginggs 	Graham Inggs
  324	gio 	Giovanni Mascellani
  325	giovani 	Giovani Augusto Ferreira
  326	giskard 	Riccardo Setti
  327	gladk 	Anton Gladky
  328	glandium 	Mike Hommey
  329	glaubitz 	John Paul Adrian Glaubitz
  330	glaweh 	Henning Glawe
  331	gleydson 	Gleydson Mazioli da Silva
  332	glondu 	Stéphane Glondu
  333	gniibe 	NIIBE Yutaka
  334	godisch 	Martin A. Godisch
  335	goedson 	Goedson Teixeira Paixao
  336	goneri 	Gonéri Le Bouder
  337	gotom 	Masanori Goto
  338	gq 	Alexander GQ Gerasiov
  339	grantma 	Matthew Grant
  340	gregoa 	Gregor Herrmann
  341	greuff 	Thomas Wana
  342	gris 	Christoph Göhre
  343	grisu 	Michael Bramer
  344	guilhem 	Guilhem Moulin
  345	guillem 	Guillem Jover
  346	guoliang 	Liang Guo
  347	gus 	Angus Lees
  348	gusnan 	Andreas Rönnquist
  349	guus 	Guus Sliepen
  350	gwolf 	Gunnar Wolf
  351	haas 	Christoph Haas
  352	hakan 	Hakan Ardo
  353	hallon 	Fredrik Hallenberg
  354	halls 	Chris Halls
  355	harmoney 	Patty Langasek
  356	harshula 	Harshula Jayasuriya
  357	hartmans 	Sam Hartman
  358	hazelsct 	Adam Powell
  359	hecker 	Richard Hecker
  360	hector 	Hector Garcia
  361	hefee 	Sandro Knauß
  362	helen 	Helen Faulkner
  363	helmutg 	Helmut Grohne
  364	henrich 	Hideki Yamane
  365	hertzog 	Raphaël Hertzog
  366	hle 	Hugo Lefeuvre
  367	hlieberman 	Harlan Lieberman-Berg
  368	hmh 	Henrique de Moraes Holschuh
  369	hoexter 	Sven Hoexter
  370	holger 	Holger Levsen
  371	holgerw 	Holger Wansing
  372	holmgren 	Magnus Holmgren
  373	honey 	Lukasz Jachowicz
  374	horms 	Simon Horman
  375	hpfn 	Herbert Parentes Fortes Neto
  376	hsteoh 	Hwei Sheng Teoh
  377	hug 	Philipp Hug
  378	hvhaugwitz 	Hannes von Haugwitz
  379	hyperair 	Loong Jin Chow
  380	iamfuzz 	Brian Thomason
  381	ianb 	Ian Beckwith
  382	ianw 	Ian Wienand
  383	ijc 	Ian James Campbell
  384	iko 	Anders Hammarquist
  385	iliastsi 	Ilias Tsitsimpis
  386	infinity0 	Ximin Luo
  387	intrigeri 	- Intrigeri
  388	irl 	Iain R. Learmonth
  389	ishikawa 	Mutsumi Ishikawa
  390	iuculano 	Giuseppe Iuculano
  391	iustin 	Iustin Pop
  392	ivan 	Ivan Kohler
  393	ivodd 	Ivo De Decker
  394	iwamatsu 	Nobuhiro Iwamatsu
  395	iwj 	Ian Jackson
  396	jab 	Jeff Breidenbach
  397	jackyf 	Eugene V. Lyubimkin
  398	jaime 	Jaime Robles
  399	jak 	Julian Andres Klode
  400	jaldhar 	Jaldhar H. Vyas
  401	jamespage 	James Downing Page
  402	jamessan 	James McCoy
  403	jamuraa 	Michael Janssen
  404	jan 	Jan Niehusmann
  405	jandd 	Jan Dittberner
  406	janos 	Janos Guljas
  407	jaq 	Jamie Wilkinson
  408	jaqque 	John H. IV Robinson
  409	jas 	Simon Josefsson
  410	jason 	Jason Thomas
  411	jaybonci 	Jay Bonci
  412	jbelmonte 	John V. Belmonte
  413	jbernard 	Jon Bernard
  414	jbfavre 	Jean Baptiste Favre
  415	jbicha 	Jeremy Bicha
  416	jbouse 	Jeremy Bouse
  417	jcc 	Jonathan Cristopher Carter
  418	jcorbier 	Jérémie Corbier
  419	jcowgill 	James Cowgill
  420	jcristau 	Julien Cristau
  421	jdg 	Julian Gilbey
  422	jeb 	James Bromberger
  423	jeffity 	Lisa Baron
  424	jelmer 	Jelmer Vernooij
  425	jeroen 	Jeroen van Wolffelaar
  426	jewel 	John Leuner
  427	jfs 	Javier Fernandez-Sanguino Peña
  428	jgoerzen 	John Goerzen
  429	jh 	Jörgen Hägg
  430	jhr 	Jan Hauke Rahm
  431	jimmy 	Jimmy Kaplowitz
  432	jjr 	Jeffrey Ratcliffe
  433	jlines 	John Lines
  434	jluebbe 	Jan Lübbe
  435	jmarler 	Jonathan Marler
  436	jmaslibre 	Josué Abarca
  437	jmm 	Moritz Muehlenhoff
  438	jmtd 	Jonathan Dowland
  439	jmw 	Jonathan Wiltshire
  440	jodal 	Stein Magnus Jodal
  441	joel 	Joel Rosdahl
  442	joerg 	Joerg Jaspert
  443	joey 	Martin Schulze
  444	johfel 	Johann Felix Soden
  445	johnf 	John Francesco Ferlito
  446	johns 	John Sullivan
  447	jon 	Jonathan Oxer
  448	jonny 	Jonny Lamb
  449	joostvb 	Joost van Baal
  450	jordi 	Jordi Mallach
  451	josch 	Johannes Schauer
  452	josem 	Jose M. Moya
  453	joshk 	Joshua Kwan
  454	joss 	Josselin Mouette
  455	josue 	Josué Ortega
  456	joussen 	Mario Joussen
  457	joy 	Josip Rodin
  458	jpuydt 	Julien Puydt
  459	jredrejo 	José L. Redrejo Rodríguez
  460	jrnieder 	Jonathan Nieder
  461	jrtc27 	James Clarke
  462	js 	Jonas Smedegaard
  463	jspricke 	Jochen Sprickerhof
  464	jsw 	John Wright
  465	jule 	Juliane Friederike Holzt
  466	julian 	Julián Moreno Patiño
  467	jwilk 	Jakub Wilk
  468	kaare 	Kåre Thor Olsen
  469	kaction 	Dmitry Bogatov
  470	kamal 	Kamal Mostafa
  471	kamop 	Atsushi Kamoshida
  472	kanashiro 	Lucas Kanashiro
  473	kaol 	Kari Pahula
  474	kaplan 	Lior Kaplan
  475	kapouer 	Jérémy Lal
  476	karen 	Karen M Sandler
  477	kartik 	Kartik Mistry
  478	kcoyner 	Kevin Coyner
  479	kcr 	Karl Ramm
  480	kees 	Kees Cook
  481	keithp 	Keith Packard
  482	kelbert 	Jean-Michel Kelbert
  483	keybuk 	Scott James Remnant
  484	khalid 	Khalid Aziz
  485	kibi 	Cyril Brulebois
  486	kilian 	Kilian Krause
  487	kilobyte 	Adam Borowski
  488	kitame 	Takuo KITAME
  489	kitterman 	Scott Kitterman
  490	klee 	Klee Dienes
  491	kmr 	Kevin M. Rosenberg
  492	knok 	Takatsugu Nokubi
  493	kobold 	Fabio Tranchitella
  494	kolter 	Emmanuel Bouthenot
  495	koster 	Kanru Chen
  496	kov 	Gustavo Noronha
  497	kraai 	Matt Kraai
  498	krait 	Christopher Knadle
  499	krala 	Antonin Kral
  500	kreckel 	Richard Kreckel
  501	kritzefitz 	Sven Bartscher
  502	kroeckx 	Kurt Roeckx
  503	kula 	Marcin Kulisz
  504	lamby 	Chris Lamb
  505	lamont 	Lamont Jones
  506	laney 	Iain Lane
  507	lange 	Thomas Lange
  508	larjona 	Laura Arjona Reina
  509	lavamind 	Jerome Charaoui
  510	lawrencc 	Christopher Lawrence
  511	lazyfrosch 	Markus Frosch
  512	lbrenta 	Ludovic Brenta
  513	ldrolez 	Ludovic Drolez
  514	leatherface 	Julien Patriarca
  515	legoktm 	Kunal Mehta
  516	leist 	Yven Johannes Leist
  517	leitao 	Breno Leitao
  518	lenharo 	Daniel Lenharo de Souza
  519	leo 	Carsten Leonhardt
  520	lfaraone 	Luke Faraone
  521	lfilipoz 	Luca Filipozzi
  522	lightsey 	John Lightsey
  523	liiwi 	Jaakko Niemi
  524	lindi 	Timo Juhani Lindfors
  525	lingnau 	Anselm Lingnau
  526	lintux 	Wilmer van der Gaast
  527	lisandro 	Lisandro Damián Nicanor Pérez Meyer
  528	ljlane 	Laurence Lane
  529	lkajan 	Laszlo Kajan
  530	lmamane 	Lionel Elie Mamane
  531	locutusofborg 	Gianfranco Costamagna
  532	lohner 	Nils Boeffel
  533	loic 	Loic Dachary
  534	lolando 	Roland Mas
  535	lool 	Loïc Minier
  536	lopippo 	Filippo Rusconi
  537	lucab 	Luca Bruno
  538	lucas 	Lucas Nussbaum
  539	luciano 	Luciano Bello
  540	luigi 	Luigi Gangitano
  541	luk 	Luk Claes
  542	lumin 	Mo Zhou
  543	lunar 	Jérémy Bobbio
  544	lutin 	Albin Tonnerre
  545	ma 	Martin Albert
  546	maarten 	Maarten Bernardus Lankhorst
  547	mace 	Miah Gregory
  548	madamezou 	Francesca Ciceri
  549	madduck 	Martin F. Krafft
  550	madhack 	Mike Markley
  551	madkiss 	Martin Loschwitz
  552	maehara 	Keita Maehara
  553	mafm 	Manuel A. Fernandez Montecelo
  554	mak 	Matthias Klumpp
  555	mako 	Benjamin Hill
  556	maks 	Maximilian Attems
  557	malat 	Mathieu Malaterre
  558	malattia 	Mattia Dongili
  559	malex 	Oleksandr V. Moskalenko
  560	mans0954 	Christopher Stuart Hoskin
  561	manty 	Santiago Garcia Mantinan
  562	manu 	Emmanuel Kasper Kasprzyk
  563	manuel 	Manuel Prinz
  564	mapache 	Eduardo Trápani
  565	marciosouza 	Marcio de Souza Oliveira
  566	marga 	Margarita Manterola
  567	marillat 	Christian Marillat
  568	markos 	Konstantinos Margaritis
  569	marks 	Mark Shuttleworth
  570	markus 	Markus Wanner
  571	maswan 	Mattias Wadenstein
  572	mattb 	Matthew Brown
  573	matthew 	Matthew Vernon
  574	matthieucan 	Matthieu Caneill
  575	matthijs 	Matthijs Möhlmann
  576	mattia 	Mattia Rizzolo
  577	mattice 	Michael D. Mattice
  578	maxx 	Martin Wuertele
  579	maxy 	Maximiliano Curia
  580	mazen 	Mazen Neifer
  581	mbanck 	Michael Banck
  582	mbehrle 	Mathias Behrle
  583	mbuck 	Martin Buck
  584	mckinstry 	Alastair McKinstry
  585	md 	Marco d'Itri
  586	mdj 	Mikael Djurfeldt
  587	mdz 	Matt Zimmerman
  588	mechanix 	Filip Van Raemdonck
  589	mechtilde 	Mechtilde Stehmann
  590	meebey 	Mirco Bauer
  591	mehdi 	Mehdi Dogguy
  592	mejo 	Jonas Meurer
  593	mennucc1 	Andrea Mennucci
  594	merker 	Karsten Merker
  595	merkys 	Andrius Merkys
  596	meskes 	Michael Meskes
  597	mestia 	Alexandre Mestiashvili
  598	metal 	Marcelo Jorge Vieira
  599	meyering 	Jim Meyering
  600	mez 	Martin Meredith
  601	mfv 	Matteo F. Vescovi
  602	mgilbert 	Michael Gilbert
  603	mhatta 	Masayuki Hatta
  604	mhy 	Mark Hymers
  605	micah 	Micah Anderson
  606	micha 	Micha Lenk
  607	michi 	Michael Schutte
  608	midget 	Dario Minnucci
  609	mih 	Michael Hanke
  610	mika 	Michael Prokop
  611	milan 	Milan Kupcevic
  612	miquels 	Miquel van Smoorenburg
  613	miriam 	Miriam Ruiz
  614	mithrandi 	Tristan Seligmann
  615	mitya57 	Dmitry Shachnev
  616	mjb 	Michael Beattie
  617	mjeanson 	Michael Jeanson
  618	mjg59 	Matthew Garrett
  619	mjr 	M J Ray
  620	mjt 	Michael Tokarev
  621	mlt 	Marcela Tiznado
  622	mmind 	Heiko Stübner
  623	mnencia 	Marco Nenciarini
  624	mnordstr 	Mattias Nordstrom
  625	modax 	Modestas Vainius
  626	moeller 	Steffen Möller
  627	mollydb 	Molly de Blanc
  628	mones 	Ricardo Mones Lastra
  629	monga 	Mattia Monga
  630	monica 	Mònica Ramírez Arceda
  631	moray 	Moray Allan
  632	morimura 	Teruyuki Morimura
  633	morph 	Sandro Tosi
  634	mpalmer 	Matthew Palmer
  635	mpitt 	Martin Pitt
  636	mquinson 	Martin Quinson
  637	mrd 	Matthew Danish
  638	ms 	Michael Schiansky
  639	msameer 	Mohammed Sameer
  640	msp 	Mark Purcell
  641	mstone 	Michael Stone
  642	mt 	Michael Tautschnig
  643	mtecknology 	Michael Lustfield
  644	mtmiller 	Mike Miller
  645	muammar 	Muammar El Khatib
  646	murat 	Murat Demirten
  647	mvb 	Martijn van Brummelen
  648	mvo 	Michael Vogt
  649	mwei 	Ming-ting Yao Wei
  650	mwhudson 	Michael Hudson-Doyle
  651	myon 	Christoph Berg
  652	naoliv 	Nelson A. de Oliveira
  653	nas 	Neil A. Schemenauer
  654	nathans 	Nathan Scott
  655	nattie 	Nattie Mayer-Hutchings
  656	natureshadow 	Dominik George
  657	nboullis 	Nicolas Boullis
  658	nbreen 	Nicholas Breen
  659	neil 	Neil L. Roeth
  660	neilm 	Neil McGovern
  661	netzwurm 	David Spreen
  662	neutrons 	Neutron Soutmun
  663	nhandler 	Nathaniel Harrison Handler
  664	nicolas 	Nicolas Boulenguez
  665	nicoo 	Nicolas Braud-Santoni
  666	nijel 	Michal Cihar
  667	nirgal 	Jean-Michel Vourgère
  668	noahm 	Noah Meyerhans
  669	nobse 	Norbert Tretkowski
  670	noel 	Noèl Köthe
  671	nomadium 	Miguel Landaeta
  672	nomeata 	Joachim Breitner
  673	noodles 	Jonathan McDowell
  674	noshiro 	Shigeo Noshiro
  675	nthykier 	Niels Thykier
  676	ntyni 	Niko Tyni
  677	nveber 	Norbert Veber
  678	nwp 	Nick Phillips
  679	ocsi 	Lenart Janos
  680	odyx 	Didier Raboud
  681	ogi 	Ognyan Kulev
  682	ohura 	Makoto OHURA
  683	olasd 	Nicolas Dandrimont
  684	olebole 	Ole Streicher
  685	oliva 	Gennaro Oliva
  686	olly 	Olly Betts
  687	omote 	Masahito Omote
  688	ondrej 	Ondrej Sury
  689	onlyjob 	Dmitry Smirnov
  690	onovy 	Ondřej Nový
  691	oohara 	Yuuma Oohara
  692	opal 	Ola Lundqvist
  693	osallou 	Olivier Sallou
  694	osamu 	Osamu Aoki
  695	otto 	Otto Kekäläinen
  696	ovek 	Ove Kåven
  697	p2 	Peter De Schrijver
  698	pabs 	Paul Wise
  699	pape 	Gerrit Pape
  700	paravoid 	Faidon Liambotis
  701	pasc 	Pascal Hakim
  702	patryk 	Patryk Cisek
  703	paul 	Paul Slootman
  704	paulliu 	Ying-Chun Liu
  705	paulproteus 	Asheesh Laroia
  706	paultag 	Paul Richards Tagliamonte
  707	paulvt 	Paul van Tilburg
  708	paulwaite 	Paul Waite
  709	pdm 	Milan Zamazal
  710	peb 	Pierre-Elliott Bécue
  711	peloy 	Eloy A. Paris
  712	pere 	Petter Reinholdtsen
  713	periapt 	Nicholas Bamber
  714	petere 	Peter Eisentraut
  715	pfaffben 	Ben Pfaff
  716	philh 	Philip Hands
  717	philou 	Philippe Thierry
  718	phls 	Paulo Henrique de Lima Santana
  719	picca 	Frédéric-Emmanuel Picca
  720	piefel 	Michael Piefel
  721	piem 	Paul Brossier
  722	pik 	Paul Cannon
  723	pini 	Gilles Filippini
  724	pino 	Pino Toscano
  725	piotr 	Piotr Ożarowski
  726	pjb 	Phil Brooke
  727	pkern 	Philipp Kern
  728	plessy 	Charles Plessy
  729	plugwash 	Peter Michael Green
  730	pm 	Paul Martin
  731	pmatthaei 	Patrick Matthäi
  732	pmhahn 	Philipp Matthias Hahn
  733	pochu 	Emilio Pozuelo Monfort
  734	pollo 	Louis-Philippe Véronneau
  735	pollux 	Pierre Chifflier
  736	porridge 	Marcin Owsiany
  737	pouelle 	Patrick Ouellette
  738	prach 	Prach Pongpanich
  739	praveen 	Praveen Arimbrathodiyil
  740	preining 	Norbert Preining
  741	pronovic 	Kenneth J. Pronovici
  742	psg 	Peter S. Galbraith
  743	punit 	Punit Agrawal
  744	pvaneynd 	Peter Van Eynde
  745	pyro 	Brian Nelson
  746	qjb 	Jay Berkenbilt
  747	racke 	Stefan Hornburg
  748	rafael 	Rafael Laboissiere
  749	rak 	Ryan Kavanagh
  750	ras 	Russell Stuart
  751	rattusrattus 	Andy Simpkins
  752	rbalint 	Balint Reczey
  753	rbasak 	Robie Basak
  754	rbd 	Roland Dreier
  755	rcp 	Ross Peachey
  756	rcw 	Robert Woodcock
  757	reg 	Gregory Colpart
  758	reichel 	Joachim Reichel
  759	rene 	Rene Engelhard
  760	rfehren 	Roland Fehrenbacher
  761	rfrancoise 	Romain Francoise
  762	rhonda 	Rhonda D'Vine
  763	richih 	Richard Michael Hartmann
  764	riku 	Riku Voipio
  765	risko 	RISKO Gergely
  766	rlb 	Rob Browning
  767	rmayorga 	Rene Mayorga
  768	rmayr 	Rene Mayrhofer
  769	rmgolbeck 	Ryan M. Golbeck
  770	rmh 	Robert Millan
  771	roam 	Peter Pentchev
  772	robert 	Robert Luberda
  773	robertle 	Robert Lemmen
  774	roberto 	Roberto C. Sanchez
  775	robotux 	Thomas Preud'homme
  776	robster 	Rob Bradford
  777	roktas 	Recai Oktas
  778	roland 	Roland Rosenfeld
  779	ron 	Ron Lee
  780	rosh 	Roger Shimizu
  781	ross 	Ross Burton
  782	rossgammon 	Ross Gammon
  783	rouca 	Bastien Roucariès
  784	rousseau 	Ludovic Rousseau
  785	rover 	Roberto Lumbreras
  786	rra 	Russ Allbery
  787	rrs 	Ritesh Raj Sarraf
  788	rubund 	Ruben Undheim
  789	rudi 	Roland Marcus Rutschmann
  790	rvandegrift 	Ross Vandegrift
  791	rweber 	Rene Weber
  792	salve 	Davide G.M. Salvetti
  793	samj 	Sam Johnston
  794	samo 	Sam Clegg
  795	samueloph 	Samuel Henrique
  796	santiago 	Santiago Ruano Rincón
  797	sanvila 	Santiago Vila
  798	sasa 	Attila Szalay
  799	sathieu 	Mathieu Parent
  800	satta 	Sascha Steinbiss
  801	sbadia 	Sebastien Badia
  802	sblondon 	Stéphane Blondon
  803	schepler 	Daniel Schepler
  804	schlue 	Michael Schlueter
  805	schmitz 	Michael Schmitz
  806	schultmc 	Michael C. Schultheiss
  807	sdt 	Stuart Teasdale
  808	seamlik 	Kai-Chung Yan
  809	seamus 	Angel Ramos
  810	seb 	Sebastien Delafond
  811	seb128 	Sebastien Bacher
  812	sebastic 	Sebastiaan Couwenberg
  813	sebastien 	Sébastien Villemot
  814	segre 	Carlo U. Segre
  815	sergiodj 	Sergio Durigan Junior
  816	serpent 	Tomasz Rybak
  817	sesse 	Steinar H. Gunderson
  818	sez 	Serafeim Zanikolas
  819	sf 	Stefan Fritsch
  820	sfrost 	Stephen Frost
  821	sgevatter 	Siegfried-Angel Gevatter Pujals
  822	sgolovan 	Sergei Golovan
  823	sgran 	Stephen Gran
  824	shachar 	Shachar Shemesh
  825	shaka 	Øystein Gisnås
  826	shane 	Shane Wegner
  827	sharkey 	Eric Sharkey
  828	sharky 	Jeremy Lainé
  829	shlomme 	Torsten Marek
  830	sho 	Samuel Hocevar
  831	showard 	Scott Sheridan Howard
  832	shugo 	Shugo Maeda
  833	siretart 	Reinhard Tartler
  834	sjackman 	Shaun Jackman
  835	sjoerd 	Sjoerd Simons
  836	sjr 	Simon Richter
  837	skainz 	Simon Kainz
  838	skitt 	Stephen Kitt
  839	skx 	Steve Kemp
  840	slomo 	Sebastian Dröge
  841	smarenka 	Stephen R. Marenka
  842	smcv 	Simon McVittie
  843	smimram 	Samuel Mimram
  844	smr 	Steven Michael Robbins
  845	smurf 	Matthias Urlichs
  846	spa 	Salvador Abreu
  847	spamaps 	Clint Byrum
  848	spectra 	Pablo Lorenzzoni
  849	spwhitton 	Sean Whitton
  850	sramacher 	Sebastian Ramacher
  851	sre 	Sebastian Reichel
  852	srittau 	Sebastian Rittau
  853	srivasta 	Manoj Srivastava
  854	srk 	Simon Kelley
  855	ssgelm 	Stephen Gelman
  856	ssm 	Stig Sandbeck Mathisen
  857	stapelberg 	Michael Stapelberg
  858	stappers 	Geert Stappers
  859	steele 	David Steele
  860	stefanor 	Stefano Rivera
  861	steinm 	Uwe Steinmann
  862	stender 	Daniel Stender
  863	stephe 	Stephen Leake
  864	steve 	Steve Kostecke
  865	stevegr 	Steve Greenland
  866	stevenc 	Steven Chamberlain
  867	stevenk 	Steve Kowalik
  868	sthibault 	Samuel Thibault
  869	sto 	Sergio Talens-Oliag
  870	stratus 	Gustavo Franco
  871	stuart 	Stuart Prescott
  872	sune 	Sune Vuorela
  873	sunweaver 	Mike Gabriel
  874	sven 	Sven Mueller
  875	sylvestre 	Sylvestre Ledru
  876	synrg 	Ben Armstrong
  877	syq 	YunQiang Su
  878	szlin 	SZ Lin
  879	tach 	Taku Yasui
  880	taffit 	David Prévot
  881	taggart 	Matt Taggart
  882	takaki 	Takaki Taniguchi
  883	tanguy 	Tanguy Ortolo
  884	tao 	David Weinehall
  885	tassia 	Tássia Camões Araújo
  886	tats 	Tatsuya Kinoshita
  887	tb 	Thomas Bushnell
  888	tbm 	Martin Michlmayr
  889	tehnick 	Boris Pek
  890	terceiro 	Antonio Terceiro
  891	terpstra 	Wesley W. Terpstra
  892	tfheen 	Tollef Fog Heen
  893	tg 	Thorsten Glaser
  894	tgg 	Thomas Girard
  895	thansen 	Tobias Hansen
  896	thb 	Thaddeus H. Black
  897	thep 	Theppitak Karoonboonyanan
  898	thibaut 	Thibaut Jean-Claude Paumard
  899	thierry 	Thierry Randrianiriana
  900	thijs 	Thijs Kinkhorst
  901	thk 	Thomas Koch
  902	thom 	Thom May
  903	thorvald 	Thorvald Natvig
  904	tiago 	Tiago Bortoletto Vaz
  905	tianon 	Tianon Gravi
  906	tijuca 	Carsten Schoenert
  907	tille 	Andreas Tille
  908	timo 	Timo Jyrinki
  909	timr 	Tim Riker
  910	tin 	Agustin Henze
  911	tincho 	Martín Ferrari
  912	tiwe 	Timo Weingärtner
  913	tjaalton 	Timo Aaltonen
  914	tjhukkan 	Teemu Hukkanen
  915	tjrc1 	Tim Cutts
  916	tmancill 	Tony Mancill
  917	toabctl 	Thomas Bechtold
  918	tobi 	Tobias Frost
  919	toddy 	Tobias Quathamer
  920	tokkee 	Sebastian Harl
  921	toma 	Tamas Szerb
  922	tomasz 	Tomasz Buchert
  923	tomfa 	Tomas Fasth
  924	toni 	Toni Mueller
  925	torsten 	Torsten Landschoff
  926	tpo 	Tomas Pospisek
  927	tpot 	Timothy Martin Potter
  928	treinen 	Ralf Treinen
  929	troup 	James Troup
  930	troyh 	Troy Heber
  931	tschmidt 	Thomas Schmidt
  932	tsimonq2 	Simon Quigley
  933	tvainika 	Tommi Vainikainen
  934	tvincent 	Thomas Vincent
  935	tweber 	Thomas Weber
  936	twerner 	Torsten Werner
  937	tytso 	Theodore Y. Ts'o
  938	tzafrir 	Tzafrir Cohen
  939	ucko 	Aaron M. Ucko
  940	uhoreg 	Hubert Chan
  941	ukleinek 	Uwe Kleine-König
  942	uli 	Ulrich Dangel
  943	ulrike 	Ulrike Uhlig
  944	ultrotter 	Guido Trotter
  945	umlaeute 	IOhannes m zmölnig
  946	unera 	Dmitry Oboukhov
  947	unit193 	Unit 193
  948	uwe 	Uwe Hermann
  949	vagrant 	Vagrant Cascadian
  950	valhalla 	Elena Grandi
  951	vanicat 	Remi Vanicat
  952	varun 	Varun Hiremath
  953	vasudev 	Vasudev Sathish Kamath
  954	vcheng 	Vincent Cheng
  955	vdanjean 	Vincent Danjean
  956	venthur 	Bastian Venthur
  957	vicho 	Javier Merino Cacho
  958	viiru 	Arto Jantunen
  959	vince 	Vincent Sanders
  960	vlegout 	Vincent Legout
  961	vorlon 	Steve Langasek
  962	vseva 	Victor Seva
  963	vvidic 	Valentin Vidic
  964	wagner 	Hanno Wagner
  965	waja 	Jan Wagner
  966	waldi 	Bastian Blank
  967	warp10 	Andrea Colangelo
  968	wart 	Wartan Hachaturow
  969	wdg 	Daniel Glassey
  970	weasel 	Peter Palfrader
  971	wehe 	Werner Heuser
  972	weinholt 	Göran Weinholt
  973	wendar 	Allison Randal
  974	werner 	Morten Werner Forsbring
  975	wferi 	Ferenc Wágner
  976	wijnen 	Bas Wijnen
  977	will 	Will Newton
  978	willi 	Willi Mann
  979	winnie 	Patrick Winnertz
  980	wookey 	Wookey
  981	wouter 	Wouter Verhelst
  982	wrar 	Andrey Rahmatullin
  983	xaiki 	Niv Sardi-Altivanik
  984	xam 	Max Vozeler
  985	xavier 	Xavier Roche
  986	xluthi 	Xavier Lüthi
  987	xnox 	Dimitri Ledkov
  988	yadd 	Xavier Guimard
  989	yaegashi 	Takeshi YAEGASHI
  990	yoh 	Yaroslav Halchenko
  991	yooseong 	Yooseong Yang
  992	yyabuki 	Yukiharu Yabuki
  993	zack 	Stefano Zacchiroli
  994	zed 	Zed Pobre
  995	zeha 	Christian Hofstaedtler
  996	zhsj 	Shengjing Zhu
  997	zigo 	Thomas Goirand
  998	zinoviev 	Anton Zinoviev
  999	zlatan 	Zlatan Todoric
 1000	zobel 	Martin Zobel-Helas
 1001	zufus 	Marco Presi
 1002	zugschlus 	Marc Haber
 1003	zumbi 	Hector Oron
